{
  "miniprogramRoot": "./dist",
  "projectname": "new-project",
  "description": "new-project",
  "appid": "new-project",
  "setting": {
    "urlCheck": false,
    "es6": false,
    "postcss": false,
    "minified": false
  },
  "compileType": "miniprogram"
}
